%YAML 1.1
%TAG !u! tag:unity3d.com,2011:
--- !u!114 &11400000
MonoBehaviour:
  m_ObjectHideFlags: 0
  m_CorrespondingSourceObject: {fileID: 0}
  m_PrefabInstance: {fileID: 0}
  m_PrefabAsset: {fileID: 0}
  m_GameObject: {fileID: 0}
  m_Enabled: 1
  m_EditorHideFlags: 0
  m_Script: {fileID: 11500000, guid: bbb281ee3bf0b054c82ac2347e9e782c, type: 3}
  m_Name: Font Assets
  m_EditorClassIdentifier: 
  m_GroupName: Font Assets
  m_Data:
    m_SerializedData: []
  m_GUID: 5c3626656924848438129504b894d6f4
  m_SerializeEntries:
  - m_GUID: 91a8f941e56a76b448fdecd48f0c5e00
    m_Address: Oxanium-ExtraBold SDF
    m_ReadOnly: 0
    m_SerializedLabels:
    - 1.0
    FlaggedDuringContentUpdateRestriction: 0
  m_ReadOnly: 0
  m_Settings: {fileID: 11400000, guid: 3c637dff5b2562243902d455d0c70c71, type: 2}
  m_SchemaSet:
    m_Schemas:
    - {fileID: 11400000, guid: e06e1df79c8f0344d9e96bb64b5022b3, type: 2}
    - {fileID: 11400000, guid: b996d6dae8a42ed4f81ea07c7cf72ef2, type: 2}
