%YAML 1.1
%TAG !u! tag:unity3d.com,2011:
--- !u!1045 &1
EditorBuildSettings:
  m_ObjectHideFlags: 0
  serializedVersion: 2
  m_Scenes: []
  m_configObjects:
    com.unity.addressableassets: {fileID: 11400000, guid: ca9ecd60e3de9024bb07dc406103e645, type: 2}
